%YAML 1.1
%TAG !u! tag:unity3d.com,2011:
--- !u!1 &8268279595980628641
GameObject:
  m_ObjectHideFlags: 0
  m_CorrespondingSourceObject: {fileID: 0}
  m_PrefabInstance: {fileID: 0}
  m_PrefabAsset: {fileID: 0}
  serializedVersion: 6
  m_Component:
  - component: {fileID: 7674581268344072374}
  - component: {fileID: 9158859903781169126}
  m_Layer: 0
  m_Name: sE_btn_hover
  m_TagString: Untagged
  m_Icon: {fileID: 0}
  m_NavMeshLayer: 0
  m_StaticEditorFlags: 0
  m_IsActive: 1
--- !u!4 &7674581268344072374
Transform:
  m_ObjectHideFlags: 0
  m_CorrespondingSourceObject: {fileID: 0}
  m_PrefabInstance: {fileID: 0}
  m_PrefabAsset: {fileID: 0}
  m_GameObject: {fileID: 8268279595980628641}
  m_LocalRotation: {x: 0, y: 0, z: 0, w: 1}
  m_LocalPosition: {x: 22.679588, y: 13.677731, z: 57.151146}
  m_LocalScale: {x: 1, y: 1, z: 1}
  m_Children: []
  m_Father: {fileID: 0}
  m_RootOrder: 0
  m_LocalEulerAnglesHint: {x: 0, y: 0, z: 0}
--- !u!114 &9158859903781169126
MonoBehaviour:
  m_ObjectHideFlags: 0
  m_CorrespondingSourceObject: {fileID: 0}
  m_PrefabInstance: {fileID: 0}
  m_PrefabAsset: {fileID: 0}
  m_GameObject: {fileID: 8268279595980628641}
  m_Enabled: 1
  m_EditorHideFlags: 0
  m_Script: {fileID: 11500000, guid: e15408e23fb3f064eab310594b3835cf, type: 3}
  m_Name: 
  m_EditorClassIdentifier: 
  allSoundEffects:
  - {fileID: 8300000, guid: e42467f7dfa77074cb75225184ed44b9, type: 3}
  pitchRangePercent: {x: 90, y: 105}
  volumePercent: 70
  looping: 0
  spatial: 0
  spatialRadius: 10
